Journal (reproducible report)
…
# 1.0 Load libraries ----
library(tidyverse)
library(readxl)

# 2.0 Importing Files ----
bikes_tbl      <- read_excel("00_data/01_bike_sales/01_raw_data/bikes.xlsx")
orderlines_tbl <- read_excel("00_data/01_bike_sales/01_raw_data/orderlines.xlsx")
bikeshops_tbl  <- read_excel("00_data/01_bike_sales/01_raw_data/bikeshops.xlsx")

# 3.0 Examining Data ----
orderlines_tbl

## # A tibble: 15,644 x 7
##    ...1  order.id order.line order.date          customer.id product.id quantity
##    <chr>    <dbl>      <dbl> <dttm>                    <dbl>      <dbl>    <dbl>
##  1 1            1          1 2015-01-07 00:00:00           2       2681        1
##  2 2            1          2 2015-01-07 00:00:00           2       2411        1
##  3 3            2          1 2015-01-10 00:00:00          10       2629        1
##  4 4            2          2 2015-01-10 00:00:00          10       2137        1
##  5 5            3          1 2015-01-10 00:00:00           6       2367        1
##  6 6            3          2 2015-01-10 00:00:00           6       1973        1
##  7 7            3          3 2015-01-10 00:00:00           6       2422        1
##  8 8            3          4 2015-01-10 00:00:00           6       2655        1
##  9 9            3          5 2015-01-10 00:00:00           6       2247        1
## 10 10           4          1 2015-01-11 00:00:00          22       2408        1
## # ... with 15,634 more rows
…
  ))

covid_data_tbl %>% 
  mutate(across(countriesAndTerritories, str_replace_all, "_", " ")) %>%
  mutate(countriesAndTerritories = case_when(
    
    countriesAndTerritories == "United Kingdom" ~ "United_Kingdom",
    countriesAndTerritories == "United_States_of_America" ~ "United States of America",
    countriesAndTerritories == "Czechia"~"Czechia",
    TRUE ~ countriesAndTerritories
    
  ))

## # A tibble: 60,196 x 12
##    dateRep   day month  year cases deaths countriesAndTer~ geoId
##    <chr>   <dbl> <dbl> <dbl> <dbl>  <dbl> <chr>            <chr>
##  1 06/12/~     6    12  2020   234     10 Afghanistan      AF   
##  2 05/12/~     5    12  2020   235     18 Afghanistan      AF   
##  3 04/12/~     4    12  2020   119      5 Afghanistan      AF   
##  4 03/12/~     3    12  2020   202     19 Afghanistan      AF   
##  5 02/12/~     2    12  2020   400     48 Afghanistan      AF   
##  6 01/12/~     1    12  2020   272     11 Afghanistan      AF   
##  7 30/11/~    30    11  2020     0      0 Afghanistan      AF   
##  8 29/11/~    29    11  2020   228     11 Afghanistan      AF   
##  9 28/11/~    28    11  2020   214     15 Afghanistan      AF   
## 10 27/11/~    27    11  2020     0      0 Afghanistan      AF   
## # ... with 60,186 more rows, and 4 more variables: countryterritoryCode <chr>,
## #   popData2019 <dbl>, continentExp <chr>,
## #   `Cumulative_number_for_14_days_of_COVID-19_cases_per_100000` <dbl>
…
